{"Hostname":"respone-server","level":"info","msg":"Starting TCP server on 10.184.0.4:10000","time":"2021-08-10T09:36:18Z"}
{"Hostname":"respone-server","level":"info","msg":"Starting TCP server on 10.184.0.4:10000","time":"2021-08-10T09:36:45Z"}
{"Hostname":"respone-server","level":"info","msg":"Success adds agent config window-client-1 to file","time":"2021-08-10T09:59:32Z"}
{"Hostname":"respone-server","level":"info","msg":"Success creates dial client connection to 10.140.0.7:1234","time":"2021-08-10T09:59:32Z"}
{"Hostname":"respone-server","level":"info","msg":"Success adds agent config window-client-2 to file","time":"2021-08-10T10:07:34Z"}
{"Hostname":"respone-server","level":"info","msg":"Success creates dial client connection to 10.140.0.8:1234","time":"2021-08-10T10:07:34Z"}
{"Hostname":"respone-server","level":"info","msg":"Success creates dial client connection to 10.140.0.8:1234","time":"2021-08-10T10:09:51Z"}
{"Hostname":"respone-server","level":"info","msg":"Success creates dial client connection to 10.140.0.7:1234","time":"2021-08-10T10:13:20Z"}
{"Hostname":"respone-server","level":"info","msg":"Success creates dial client connection to 10.140.0.8:1234","time":"2021-08-10T10:13:20Z"}
{"Hostname":"respone-server","level":"info","msg":"Starting TCP server on 10.184.0.4:10000","time":"2021-08-10T10:13:20Z"}
{"Hostname":"respone-server","level":"info","msg":"Success creates dial client connection to 10.140.0.7:1234","time":"2021-08-10T10:14:05Z"}
{"Hostname":"respone-server","level":"info","msg":"Success creates dial client connection to 10.140.0.8:1234","time":"2021-08-10T10:14:05Z"}
{"Hostname":"respone-server","level":"info","msg":"Starting TCP server on 10.184.0.4:10000","time":"2021-08-10T10:14:05Z"}
{"Hostname":"respone-server","level":"info","msg":"Success \u003cnil\u003e rule","time":"2021-08-10T11:02:32Z"}
{"Hostname":"respone-server","level":"info","msg":"Success creates dial client connection to 10.140.0.7:1234","time":"2021-08-10T11:12:24Z"}
{"Hostname":"respone-server","level":"info","msg":"Success creates dial client connection to 10.140.0.8:1234","time":"2021-08-10T11:12:24Z"}
{"Hostname":"respone-server","level":"info","msg":"Starting TCP server on 10.184.0.4:10000","time":"2021-08-10T11:12:24Z"}
{"Hostname":"respone-server","level":"info","msg":"Success delete rule","time":"2021-08-10T11:20:44Z"}
{"Hostname":"respone-server","level":"info","msg":"Success add rule","time":"2021-08-10T11:25:29Z"}
{"Hostname":"respone-server","level":"info","msg":"Success delete rule","time":"2021-08-10T11:26:23Z"}
{"Hostname":"respone-server","level":"info","msg":"Success creates dial client connection to 10.140.0.7:1234","time":"2021-08-10T11:41:24Z"}
{"Hostname":"respone-server","level":"info","msg":"Success creates dial client connection to 10.140.0.8:1234","time":"2021-08-10T11:41:24Z"}
{"Hostname":"respone-server","level":"info","msg":"Starting TCP server on 10.184.0.4:10000","time":"2021-08-10T11:41:24Z"}
{"Hostname":"respone-server","level":"info","msg":"Success creates dial client connection to 10.140.0.7:1234","time":"2021-08-10T13:58:14Z"}
{"Hostname":"respone-server","level":"info","msg":"Success creates dial client connection to 10.140.0.8:1234","time":"2021-08-10T13:58:14Z"}
{"Hostname":"respone-server","level":"info","msg":"Starting TCP server on 10.184.0.4:10000","time":"2021-08-10T13:58:14Z"}
{"Hostname":"respone-server","level":"info","msg":"Success creates dial client connection to 10.140.0.7:1234","time":"2021-08-10T14:25:57Z"}
{"Hostname":"respone-server","level":"info","msg":"Success creates dial client connection to 10.140.0.8:1234","time":"2021-08-10T14:25:57Z"}
{"Hostname":"respone-server","level":"info","msg":"Starting TCP server on 10.184.0.4:10000","time":"2021-08-10T14:25:57Z"}
{"Hostname":"respone-server","level":"info","msg":"Success creates dial client connection to 10.140.0.7:1234","time":"2021-08-10T14:37:18Z"}
{"Hostname":"respone-server","level":"info","msg":"Success creates dial client connection to 10.140.0.8:1234","time":"2021-08-10T14:37:18Z"}
{"Hostname":"respone-server","level":"info","msg":"Starting TCP server on 10.184.0.4:10000","time":"2021-08-10T14:37:18Z"}
{"Hostname":"respone-server","level":"info","msg":"Success creates dial client connection to 10.140.0.7:1234","time":"2021-08-10T15:04:57Z"}
{"Hostname":"respone-server","level":"info","msg":"Success creates dial client connection to 10.140.0.8:1234","time":"2021-08-10T15:04:57Z"}
{"Hostname":"respone-server","level":"info","msg":"Starting TCP server on 10.184.0.4:10000","time":"2021-08-10T15:04:57Z"}
{"Hostname":"respone-server","level":"info","msg":"Success creates dial client connection to 10.140.0.7:1234","time":"2021-08-14T09:00:07Z"}
{"Hostname":"respone-server","level":"info","msg":"Success creates dial client connection to 10.140.0.8:1234","time":"2021-08-14T09:00:07Z"}
{"Hostname":"respone-server","level":"info","msg":"Starting TCP server on 10.184.0.4:10000","time":"2021-08-14T09:00:07Z"}
{"Hostname":"respone-server","level":"info","msg":"Success creates dial client connection to 10.140.0.7:1234","time":"2021-08-14T09:02:49Z"}
{"Hostname":"respone-server","level":"info","msg":"Success creates dial client connection to 10.140.0.7:1234","time":"2021-08-15T04:28:48Z"}
{"Hostname":"respone-server","level":"info","msg":"Success creates dial client connection to 10.140.0.8:1234","time":"2021-08-15T04:32:31Z"}
{"Hostname":"respone-server","level":"info","msg":"Success creates dial client connection to 10.140.0.7:1234","time":"2021-08-15T08:46:43Z"}
{"Hostname":"respone-server","level":"info","msg":"Success creates dial client connection to 10.140.0.8:1234","time":"2021-08-15T08:46:43Z"}
{"Hostname":"respone-server","level":"info","msg":"Starting TCP server on 10.184.0.4:10000","time":"2021-08-15T08:46:43Z"}
{"Hostname":"respone-server","level":"info","msg":"Success creates dial client connection to 10.140.0.7:1234","time":"2021-08-15T09:09:49Z"}
{"Hostname":"respone-server","level":"info","msg":"Success creates dial client connection to 10.140.0.7:1234","time":"2021-08-15T09:16:33Z"}
{"Hostname":"respone-server","level":"info","msg":"Success creates dial client connection to 10.140.0.8:1234","time":"2021-08-15T09:16:33Z"}
{"Hostname":"respone-server","level":"info","msg":"Starting TCP server on 10.184.0.4:10000","time":"2021-08-15T09:16:33Z"}
{"Hostname":"respone-server","level":"info","msg":"Success creates dial client connection to 10.140.0.7:1234","time":"2021-08-15T11:51:18Z"}
{"Hostname":"respone-server","level":"info","msg":"Success creates dial client connection to 10.140.0.8:1234","time":"2021-08-15T11:51:18Z"}
{"Hostname":"respone-server","level":"info","msg":"Starting TCP server on 10.184.0.4:10000","time":"2021-08-15T11:51:18Z"}
{"Hostname":"respone-server","level":"info","msg":"Success creates dial client connection to 10.140.0.8:1234","time":"2021-08-16T02:19:18Z"}
{"Hostname":"respone-server","level":"info","msg":"Success creates dial client connection to 10.140.0.7:1234","time":"2021-08-16T02:19:18Z"}
{"Hostname":"respone-server","level":"info","msg":"Success add rule","time":"2021-08-16T10:05:47Z"}
{"Hostname":"respone-server","level":"info","msg":"Success delete rule","time":"2021-08-16T10:32:32Z"}
{"Hostname":"respone-server","level":"info","msg":"Success add rule","time":"2021-08-16T10:44:29Z"}
{"Hostname":"respone-server","level":"info","msg":"Success add rule","time":"2021-08-16T10:47:04Z"}
{"Hostname":"respone-server","level":"info","msg":"Success \u003cnil\u003e rule","time":"2021-08-16T10:47:49Z"}
{"Hostname":"respone-server","level":"info","msg":"Success \u003cnil\u003e rule","time":"2021-08-16T10:48:03Z"}
{"Hostname":"respone-server","level":"info","msg":"Success add rule","time":"2021-08-16T10:49:53Z"}
{"Hostname":"respone-server","level":"info","msg":"Success add rule","time":"2021-08-16T10:53:56Z"}
{"Hostname":"respone-server","level":"info","msg":"Success add rule","time":"2021-08-16T10:57:25Z"}
{"Hostname":"respone-server","level":"info","msg":"Success \u003cnil\u003e rule","time":"2021-08-16T10:57:40Z"}
{"Hostname":"respone-server","level":"info","msg":"Success \u003cnil\u003e rule","time":"2021-08-16T10:57:43Z"}
{"Hostname":"respone-server","level":"info","msg":"Success \u003cnil\u003e rule","time":"2021-08-16T10:57:48Z"}
{"Hostname":"respone-server","level":"info","msg":"Success \u003cnil\u003e rule","time":"2021-08-16T10:57:52Z"}
{"Hostname":"respone-server","level":"info","msg":"Success add rule","time":"2021-08-16T11:21:51Z"}
{"Hostname":"respone-server","level":"info","msg":"Success add rule","time":"2021-08-16T11:23:16Z"}
{"Hostname":"respone-server","level":"info","msg":"Success add rule","time":"2021-08-16T11:24:19Z"}
{"Hostname":"respone-server","level":"info","msg":"Success add rule","time":"2021-08-16T11:24:58Z"}
{"Hostname":"respone-server","level":"info","msg":"Success add rule","time":"2021-08-16T11:26:15Z"}
{"Hostname":"respone-server","level":"info","msg":"Success \u003cnil\u003e rule","time":"2021-08-16T11:26:43Z"}
{"Hostname":"respone-server","level":"info","msg":"Success add rule","time":"2021-08-16T11:28:57Z"}
{"Hostname":"respone-server","level":"info","msg":"Success add rule","time":"2021-08-16T11:29:44Z"}
{"Hostname":"respone-server","level":"info","msg":"Success \u003cnil\u003e rule","time":"2021-08-16T11:30:18Z"}
{"Hostname":"respone-server","level":"info","msg":"Success add rule","time":"2021-08-16T11:32:27Z"}
{"Hostname":"respone-server","level":"info","msg":"Success \u003cnil\u003e rule","time":"2021-08-16T11:32:40Z"}
{"Hostname":"respone-server","level":"info","msg":"Success \u003cnil\u003e rule","time":"2021-08-16T11:33:45Z"}
{"Hostname":"respone-server","level":"info","msg":"Success add rule","time":"2021-08-16T11:34:32Z"}
{"Hostname":"respone-server","level":"info","msg":"Success add rule","time":"2021-08-16T11:35:11Z"}
{"Hostname":"respone-server","level":"info","msg":"Success \u003cnil\u003e rule","time":"2021-08-16T11:35:33Z"}
{"Hostname":"respone-server","level":"info","msg":"Success add rule","time":"2021-08-16T11:39:09Z"}
{"Hostname":"respone-server","level":"info","msg":"Success add rule","time":"2021-08-16T11:40:39Z"}
{"Hostname":"respone-server","level":"info","msg":"Success \u003cnil\u003e rule","time":"2021-08-16T11:42:08Z"}
{"Hostname":"respone-server","level":"info","msg":"Success creates dial client connection to 10.140.0.7:1234","time":"2021-08-16T15:44:09Z"}
{"Hostname":"respone-server","level":"info","msg":"Success creates dial client connection to 10.140.0.8:1234","time":"2021-08-16T15:44:09Z"}
{"Hostname":"respone-server","level":"info","msg":"Starting TCP server on 10.184.0.4:10000","time":"2021-08-16T15:44:09Z"}
{"Hostname":"respone-server","level":"info","msg":"Success creates dial client connection to 10.140.0.7:1234","time":"2021-08-17T01:25:59Z"}
{"Hostname":"respone-server","level":"info","msg":"Success creates dial client connection to 10.140.0.8:1234","time":"2021-08-17T01:26:00Z"}
{"Hostname":"respone-server","level":"info","msg":"Success add rule","time":"2021-08-17T03:43:36Z"}
{"Hostname":"respone-server","level":"info","msg":"Success creates dial client connection to 10.140.0.7:1234","time":"2021-08-17T09:40:19Z"}
{"Hostname":"respone-server","level":"info","msg":"Success creates dial client connection to 10.140.0.8:1234","time":"2021-08-17T09:40:19Z"}
{"Hostname":"respone-server","level":"info","msg":"Starting TCP server on 10.184.0.4:10000","time":"2021-08-17T09:40:19Z"}
{"Hostname":"respone-server","level":"info","msg":"Success creates dial client connection to 10.140.0.7:1234","time":"2021-08-17T10:31:07Z"}
{"Hostname":"respone-server","level":"info","msg":"Success creates dial client connection to 10.140.0.8:1234","time":"2021-08-17T10:31:07Z"}
{"Hostname":"respone-server","level":"info","msg":"Starting TCP server on 10.184.0.4:10000","time":"2021-08-17T10:31:07Z"}
{"Hostname":"respone-server","level":"info","msg":"Success creates dial client connection to 10.140.0.7:1234","time":"2021-08-18T03:43:19Z"}
{"Hostname":"respone-server","level":"info","msg":"Success creates dial client connection to 10.140.0.8:1234","time":"2021-08-18T03:43:19Z"}
{"Hostname":"respone-server","level":"info","msg":"Starting TCP server on 10.184.0.4:10000","time":"2021-08-18T03:43:19Z"}
{"Hostname":"respone-server","level":"info","msg":"Success creates dial client connection to 10.140.0.7:1234","time":"2021-08-18T03:48:55Z"}
{"Hostname":"respone-server","level":"info","msg":"Success creates dial client connection to 10.140.0.8:1234","time":"2021-08-18T13:39:27Z"}
{"Hostname":"respone-server","level":"info","msg":"Success creates dial client connection to 10.140.0.7:1234","time":"2021-08-18T13:39:55Z"}
{"Hostname":"respone-server","level":"info","msg":"Success creates dial client connection to 10.140.0.8:1234","time":"2021-08-18T13:39:55Z"}
{"Hostname":"respone-server","level":"info","msg":"Starting TCP server on 10.184.0.4:10000","time":"2021-08-18T13:39:55Z"}
{"Hostname":"respone-server","level":"info","msg":"Success creates dial client connection to 10.140.0.7:1234","time":"2021-08-18T13:59:43Z"}
{"Hostname":"respone-server","level":"info","msg":"Success creates dial client connection to 10.140.0.8:1234","time":"2021-08-18T13:59:43Z"}
{"Hostname":"respone-server","level":"info","msg":"Starting TCP server on 10.184.0.4:10000","time":"2021-08-18T13:59:43Z"}
{"Hostname":"respone-server","level":"info","msg":"Success creates dial client connection to 10.140.0.7:1234","time":"2021-08-18T14:01:04Z"}
{"Hostname":"respone-server","level":"info","msg":"Success creates dial client connection to 10.140.0.8:1234","time":"2021-08-18T14:01:04Z"}
{"Hostname":"respone-server","level":"info","msg":"Starting TCP server on 10.184.0.4:10000","time":"2021-08-18T14:01:04Z"}
{"Hostname":"respone-server","level":"info","msg":"Success creates dial client connection to 10.140.0.7:1234","time":"2021-08-18T14:05:07Z"}
{"Hostname":"respone-server","level":"info","msg":"Success creates dial client connection to 10.140.0.8:1234","time":"2021-08-18T14:05:07Z"}
{"Hostname":"respone-server","level":"info","msg":"Starting TCP server on 10.184.0.4:10000","time":"2021-08-18T14:05:07Z"}
{"Hostname":"respone-server","level":"info","msg":"Success creates dial client connection to 10.140.0.7:1234","time":"2021-08-18T14:06:59Z"}
{"Hostname":"respone-server","level":"info","msg":"Success creates dial client connection to 10.140.0.8:1234","time":"2021-08-18T14:06:59Z"}
{"Hostname":"respone-server","level":"info","msg":"Starting TCP server on 10.184.0.4:10000","time":"2021-08-18T14:06:59Z"}
{"Hostname":"respone-server","level":"info","msg":"Success creates dial client connection to 10.140.0.7:1234","time":"2021-08-18T14:07:23Z"}
{"Hostname":"respone-server","level":"info","msg":"Success creates dial client connection to 10.140.0.8:1234","time":"2021-08-18T14:07:23Z"}
{"Hostname":"respone-server","level":"info","msg":"Starting TCP server on 10.184.0.4:10000","time":"2021-08-18T14:07:23Z"}
{"Hostname":"respone-server","level":"info","msg":"Success creates dial client connection to 10.140.0.7:1234","time":"2021-08-18T14:09:56Z"}
{"Hostname":"respone-server","level":"info","msg":"Success creates dial client connection to 10.140.0.8:1234","time":"2021-08-18T14:09:56Z"}
{"Hostname":"respone-server","level":"info","msg":"Starting TCP server on 10.184.0.4:10000","time":"2021-08-18T14:09:56Z"}
{"Hostname":"respone-server","level":"info","msg":"Success creates dial client connection to 10.140.0.7:1234","time":"2021-08-18T14:12:51Z"}
{"Hostname":"respone-server","level":"info","msg":"Success creates dial client connection to 10.140.0.8:1234","time":"2021-08-18T14:12:51Z"}
{"Hostname":"respone-server","level":"info","msg":"Starting TCP server on 10.184.0.4:10000","time":"2021-08-18T14:12:51Z"}
{"Hostname":"respone-server","level":"info","msg":"Success creates dial client connection to 10.140.0.7:1234","time":"2021-08-18T14:13:25Z"}
{"Hostname":"respone-server","level":"info","msg":"Success creates dial client connection to 10.140.0.8:1234","time":"2021-08-18T14:13:25Z"}
{"Hostname":"respone-server","level":"info","msg":"Starting TCP server on 10.184.0.4:10000","time":"2021-08-18T14:13:25Z"}
{"Hostname":"respone-server","level":"info","msg":"Success creates dial client connection to 10.140.0.7:1234","time":"2021-08-18T14:17:44Z"}
{"Hostname":"respone-server","level":"info","msg":"Success creates dial client connection to 10.140.0.8:1234","time":"2021-08-18T14:17:44Z"}
{"Hostname":"respone-server","level":"info","msg":"Starting TCP server on 10.184.0.4:10000","time":"2021-08-18T14:17:44Z"}
{"Hostname":"respone-server","level":"info","msg":"Success creates dial client connection to 10.140.0.7:1234","time":"2021-08-18T14:34:32Z"}
{"Hostname":"respone-server","level":"info","msg":"Success creates dial client connection to 10.140.0.8:1234","time":"2021-08-18T14:34:32Z"}
{"Hostname":"respone-server","level":"info","msg":"Starting TCP server on 10.184.0.4:10000","time":"2021-08-18T14:34:32Z"}
{"Hostname":"respone-server","level":"info","msg":"Success creates dial client connection to 10.140.0.7:1234","time":"2021-08-18T14:39:27Z"}
{"Hostname":"respone-server","level":"info","msg":"Success creates dial client connection to 10.140.0.8:1234","time":"2021-08-18T14:39:27Z"}
{"Hostname":"respone-server","level":"info","msg":"Starting TCP server on 10.184.0.4:10000","time":"2021-08-18T14:39:27Z"}
{"Hostname":"respone-server","level":"info","msg":"Success creates dial client connection to 10.140.0.7:1234","time":"2021-08-18T17:55:07Z"}
{"Hostname":"respone-server","level":"info","msg":"Success creates dial client connection to 10.140.0.8:1234","time":"2021-08-18T17:55:07Z"}
{"Hostname":"respone-server","level":"info","msg":"Starting TCP server on 10.184.0.4:10000","time":"2021-08-18T17:55:07Z"}
{"Hostname":"respone-server","level":"error","msg":"EOF","time":"2021-08-18T17:56:14Z"}
{"Hostname":"respone-server","level":"error","msg":"EOF","time":"2021-08-18T17:57:14Z"}
{"Hostname":"respone-server","level":"error","msg":"EOF","time":"2021-08-18T18:02:14Z"}
{"Hostname":"respone-server","level":"error","msg":"EOF","time":"2021-08-18T18:06:17Z"}
{"Hostname":"respone-server","level":"info","msg":"Success creates dial client connection to 10.140.0.7:1234","time":"2021-08-18T18:10:26Z"}
{"Hostname":"respone-server","level":"info","msg":"Success creates dial client connection to 10.140.0.8:1234","time":"2021-08-18T18:10:26Z"}
{"Hostname":"respone-server","level":"info","msg":"Starting TCP server on 10.184.0.4:10000","time":"2021-08-18T18:10:26Z"}
{"Hostname":"respone-server","level":"info","msg":"Success creates dial client connection to 10.140.0.7:1234","time":"2021-08-18T18:24:31Z"}
{"Hostname":"respone-server","level":"info","msg":"Success creates dial client connection to 10.140.0.8:1234","time":"2021-08-18T18:24:31Z"}
{"Hostname":"respone-server","level":"error","msg":"listen tcp 10.184.0.4:10000: bind: address already in use","time":"2021-08-18T18:24:31Z"}
{"Hostname":"respone-server","level":"info","msg":"Success creates dial client connection to 10.140.0.7:1234","time":"2021-08-18T18:25:07Z"}
{"Hostname":"respone-server","level":"info","msg":"Success creates dial client connection to 10.140.0.8:1234","time":"2021-08-18T18:25:07Z"}
{"Hostname":"respone-server","level":"info","msg":"Starting TCP server on 10.184.0.4:10000","time":"2021-08-18T18:25:07Z"}
{"Hostname":"respone-server","level":"info","msg":"Success creates dial client connection to 10.140.0.7:1234","time":"2021-08-18T18:29:05Z"}
{"Hostname":"respone-server","level":"info","msg":"Success creates dial client connection to 10.140.0.8:1234","time":"2021-08-18T18:29:05Z"}
{"Hostname":"respone-server","level":"info","msg":"Starting TCP server on 10.184.0.4:10000","time":"2021-08-18T18:29:05Z"}
{"Hostname":"respone-server","level":"info","msg":"Success creates dial client connection to 10.140.0.7:1234","time":"2021-08-18T18:34:16Z"}
{"Hostname":"respone-server","level":"info","msg":"Success creates dial client connection to 10.140.0.8:1234","time":"2021-08-18T18:34:16Z"}
{"Hostname":"respone-server","level":"info","msg":"Starting TCP server on 10.184.0.4:10000","time":"2021-08-18T18:34:16Z"}
{"Hostname":"respone-server","level":"info","msg":"Success creates dial client connection to 10.140.0.7:1234","time":"2021-08-18T18:40:02Z"}
{"Hostname":"respone-server","level":"info","msg":"Success creates dial client connection to 10.140.0.8:1234","time":"2021-08-18T18:40:02Z"}
{"Hostname":"respone-server","level":"info","msg":"Starting TCP server on 10.184.0.4:10000","time":"2021-08-18T18:40:02Z"}
{"Hostname":"respone-server","level":"info","msg":"Success creates dial client connection to 10.140.0.7:1234","time":"2021-08-20T16:22:58Z"}
{"Hostname":"respone-server","level":"info","msg":"Success creates dial client connection to 10.140.0.8:1234","time":"2021-08-20T16:22:58Z"}
{"Hostname":"respone-server","level":"info","msg":"Starting TCP server on 10.184.0.4:10000","time":"2021-08-20T16:22:58Z"}
{"Hostname":"respone-server","level":"info","msg":"Success creates dial client connection to 10.140.0.7:1234","time":"2021-08-20T16:28:44Z"}
{"Hostname":"respone-server","level":"info","msg":"Success creates dial client connection to 10.140.0.8:1234","time":"2021-08-20T16:28:44Z"}
{"Hostname":"respone-server","level":"info","msg":"Starting TCP server on 10.184.0.4:10000","time":"2021-08-20T16:28:44Z"}
{"Hostname":"respone-server","level":"info","msg":"Success add rule","time":"2021-08-21T07:56:43Z"}
{"Hostname":"respone-server","level":"info","msg":"Success delete rule","time":"2021-08-21T07:57:10Z"}
{"Hostname":"respone-server","level":"info","msg":"Success add rule","time":"2021-08-21T07:58:25Z"}
{"Hostname":"respone-server","level":"info","msg":"Success add rule","time":"2021-08-21T08:02:58Z"}
{"Hostname":"respone-server","level":"info","msg":"Success delete rule","time":"2021-08-21T08:03:10Z"}
{"Hostname":"respone-server","level":"info","msg":"Success creates dial client connection to 10.140.0.7:1234","time":"2021-08-21T15:49:11Z"}
{"Hostname":"respone-server","level":"info","msg":"Success creates dial client connection to 10.140.0.8:1234","time":"2021-08-21T15:52:22Z"}
{"Hostname":"respone-server","level":"info","msg":"Success creates dial client connection to 10.140.0.7:1234","time":"2021-08-21T15:55:34Z"}
{"Hostname":"respone-server","level":"info","msg":"Success creates dial client connection to 10.140.0.8:1234","time":"2021-08-21T15:55:34Z"}
{"Hostname":"respone-server","level":"info","msg":"Starting TCP server on 10.184.0.4:10000","time":"2021-08-21T15:55:34Z"}
{"Hostname":"respone-server","level":"info","msg":"Success delete rule","time":"2021-08-22T14:13:29Z"}
{"Hostname":"respone-server","level":"info","msg":"Success creates dial client connection to 10.140.0.7:1234","time":"2021-08-22T14:16:51Z"}
{"Hostname":"respone-server","level":"info","msg":"Success creates dial client connection to 10.140.0.8:1234","time":"2021-08-22T14:16:51Z"}
{"Hostname":"respone-server","level":"info","msg":"Starting TCP server on 10.184.0.4:10000","time":"2021-08-22T14:16:51Z"}
{"Hostname":"respone-server","level":"info","msg":"Success delete rule","time":"2021-08-22T14:17:17Z"}
{"Hostname":"respone-server","level":"info","msg":"Success delete rule","time":"2021-08-22T14:17:22Z"}
{"Hostname":"respone-server","level":"info","msg":"Success delete rule","time":"2021-08-22T14:17:31Z"}
{"Hostname":"respone-server","level":"info","msg":"Success add rule","time":"2021-08-22T14:19:18Z"}
{"Hostname":"respone-server","level":"info","msg":"Success add rule","time":"2021-08-22T14:19:47Z"}
{"Hostname":"respone-server","level":"info","msg":"Success delete rule","time":"2021-08-22T15:28:04Z"}
{"Hostname":"respone-server","level":"info","msg":"Success delete rule","time":"2021-08-22T15:30:48Z"}
{"Hostname":"respone-server","level":"info","msg":"Success creates dial client connection to 10.140.0.7:1234","time":"2021-08-25T08:24:53Z"}
{"Hostname":"respone-server","level":"info","msg":"Success creates dial client connection to 10.140.0.8:1234","time":"2021-08-25T08:24:54Z"}
{"Hostname":"respone-server","level":"info","msg":"Success add rule","time":"2021-08-25T14:02:21Z"}
{"Hostname":"respone-server","level":"info","msg":"Success add rule","time":"2021-08-25T14:03:18Z"}
{"Hostname":"respone-server","level":"info","msg":"Success delete rule","time":"2021-08-25T14:06:56Z"}
{"Hostname":"respone-server","level":"info","msg":"Success creates dial client connection to 10.140.0.7:1234","time":"2021-08-26T13:29:00Z"}
{"Hostname":"respone-server","level":"info","msg":"Success creates dial client connection to 10.140.0.8:1234","time":"2021-08-26T13:29:02Z"}
{"Hostname":"respone-server","level":"info","msg":"Success creates dial client connection to 10.140.0.7:1234","time":"2021-08-27T07:50:43Z"}
{"Hostname":"respone-server","level":"info","msg":"Success creates dial client connection to 10.140.0.8:1234","time":"2021-08-27T07:50:44Z"}
{"Hostname":"respone-server","level":"info","msg":"Success creates dial client connection to 10.140.0.7:1234","time":"2021-08-27T10:36:22Z"}
{"Hostname":"respone-server","level":"info","msg":"Success delete rule","time":"2021-08-27T23:25:19Z"}
{"Hostname":"respone-server","level":"info","msg":"Success add rule","time":"2021-08-27T23:36:29Z"}
{"Hostname":"respone-server","level":"info","msg":"Success delete rule","time":"2021-08-27T23:56:59Z"}
{"Hostname":"respone-server","level":"info","msg":"Success add rule","time":"2021-08-27T23:59:54Z"}
{"Hostname":"respone-server","level":"info","msg":"Success creates dial client connection to 10.140.0.8:1234","time":"2021-08-28T00:58:36Z"}
{"Hostname":"respone-server","level":"info","msg":"Success creates dial client connection to 10.140.0.7:1234","time":"2021-08-28T01:00:37Z"}
{"Hostname":"respone-server","level":"info","msg":"Success creates dial client connection to 10.140.0.8:1234","time":"2021-08-28T01:00:37Z"}
{"Hostname":"respone-server","level":"info","msg":"Starting TCP server on 10.184.0.4:10000","time":"2021-08-28T01:00:37Z"}
{"Hostname":"respone-server","level":"info","msg":"Success creates dial client connection to 10.140.0.7:1234","time":"2021-08-28T01:00:39Z"}
{"Hostname":"respone-server","level":"info","msg":"Success creates dial client connection to 10.140.0.8:1234","time":"2021-08-28T01:00:39Z"}
{"Hostname":"respone-server","level":"info","msg":"Starting TCP server on 10.184.0.4:10000","time":"2021-08-28T01:00:39Z"}
{"Hostname":"respone-server","level":"info","msg":"Success creates dial client connection to 10.140.0.7:1234","time":"2021-08-28T04:06:37Z"}
{"Hostname":"respone-server","level":"info","msg":"Success delete rule","time":"2021-08-28T07:47:54Z"}
{"Hostname":"respone-server","level":"info","msg":"Success add rule","time":"2021-08-28T09:15:35Z"}
{"Hostname":"respone-server","level":"info","msg":"Success add rule","time":"2021-08-28T09:16:18Z"}
{"Hostname":"respone-server","level":"info","msg":"Success delete rule","time":"2021-08-28T14:01:45Z"}
{"Hostname":"respone-server","level":"info","msg":"Success delete rule","time":"2021-08-28T14:01:56Z"}
{"Hostname":"respone-server","level":"info","msg":"Success add rule","time":"2021-08-28T14:28:35Z"}
{"Hostname":"respone-server","level":"info","msg":"Success creates dial client connection to 10.140.0.7:1234","time":"2021-08-29T02:35:10Z"}
{"Hostname":"respone-server","level":"info","msg":"Success creates dial client connection to 10.140.0.8:1234","time":"2021-08-29T02:35:44Z"}
{"Hostname":"respone-server","level":"info","msg":"Success add rule","time":"2021-08-29T04:33:11Z"}
{"Hostname":"respone-server","level":"info","msg":"Success creates dial client connection to 10.140.0.7:1234","time":"2021-08-29T13:42:49Z"}
{"Hostname":"respone-server","level":"info","msg":"Success creates dial client connection to 10.140.0.8:1234","time":"2021-08-29T13:42:55Z"}
{"Hostname":"respone-server","level":"info","msg":"Success delete rule","time":"2021-08-30T10:54:43Z"}
{"Hostname":"respone-server","level":"info","msg":"Success delete rule","time":"2021-08-30T10:54:46Z"}
{"Hostname":"respone-server","level":"info","msg":"Success add rule","time":"2021-08-30T11:02:29Z"}
{"Hostname":"respone-server","level":"info","msg":"Success delete rule","time":"2021-08-30T11:03:35Z"}
{"Hostname":"respone-server","level":"info","msg":"Success add rule","time":"2021-08-30T11:05:19Z"}
{"Hostname":"respone-server","level":"info","msg":"Success delete rule","time":"2021-08-30T11:05:54Z"}
{"Hostname":"respone-server","level":"info","msg":"Success delete rule","time":"2021-08-30T11:06:20Z"}
{"Hostname":"respone-server","level":"info","msg":"Success add rule","time":"2021-08-30T11:07:13Z"}
{"Hostname":"respone-server","level":"info","msg":"Success delete rule","time":"2021-08-30T11:08:22Z"}
{"Hostname":"respone-server","level":"info","msg":"Success creates dial client connection to 10.140.0.7:1234","time":"2021-08-30T11:35:16Z"}
{"Hostname":"respone-server","level":"info","msg":"Success creates dial client connection to 10.140.0.8:1234","time":"2021-08-30T11:35:16Z"}
{"Hostname":"respone-server","level":"info","msg":"Starting TCP server on 10.184.0.4:10000","time":"2021-08-30T11:35:16Z"}
{"Hostname":"respone-server","level":"info","msg":"Success add rule","time":"2021-08-30T12:52:54Z"}
{"Hostname":"respone-server","level":"info","msg":"Success delete rule","time":"2021-08-30T12:53:55Z"}
{"Hostname":"respone-server","level":"info","msg":"Success add rule","time":"2021-08-30T12:56:54Z"}
{"Hostname":"respone-server","level":"info","msg":"Success delete rule","time":"2021-08-30T12:57:25Z"}
{"Hostname":"respone-server","level":"info","msg":"Success add rule","time":"2021-08-30T13:00:18Z"}
{"Hostname":"respone-server","level":"info","msg":"Success delete rule","time":"2021-08-30T13:00:51Z"}
{"Hostname":"respone-server","level":"info","msg":"Success add rule","time":"2021-08-30T13:02:05Z"}
{"Hostname":"respone-server","level":"info","msg":"Success creates dial client connection to 10.140.0.7:1234","time":"2021-08-30T13:02:44Z"}
{"Hostname":"respone-server","level":"info","msg":"Success creates dial client connection to 10.140.0.8:1234","time":"2021-08-30T13:02:44Z"}
{"Hostname":"respone-server","level":"info","msg":"Starting TCP server on 10.184.0.4:10000","time":"2021-08-30T13:02:44Z"}
{"Hostname":"respone-server","level":"info","msg":"Success delete rule","time":"2021-08-30T13:03:32Z"}
{"Hostname":"respone-server","level":"info","msg":"Success add rule","time":"2021-08-30T13:04:51Z"}
{"Hostname":"respone-server","level":"info","msg":"Success add rule","time":"2021-08-30T23:15:39Z"}
{"Hostname":"respone-server","level":"info","msg":"Success add rule","time":"2021-08-30T23:15:48Z"}
{"Hostname":"respone-server","level":"info","msg":"Success delete rule","time":"2021-08-30T23:20:24Z"}
{"Hostname":"respone-server","level":"info","msg":"Success delete rule","time":"2021-08-30T23:24:34Z"}
{"Hostname":"respone-server","level":"info","msg":"Success add rule","time":"2021-08-30T23:24:55Z"}
{"Hostname":"respone-server","level":"info","msg":"Success add rule","time":"2021-08-30T23:25:40Z"}
{"Hostname":"respone-server","level":"info","msg":"Success add rule","time":"2021-08-30T23:25:41Z"}
{"Hostname":"respone-server","level":"info","msg":"Success delete rule","time":"2021-08-30T23:25:55Z"}
{"Hostname":"respone-server","level":"info","msg":"Success delete rule","time":"2021-08-30T23:26:20Z"}
{"Hostname":"respone-server","level":"info","msg":"Success delete rule","time":"2021-08-30T23:26:33Z"}
{"Hostname":"respone-server","level":"info","msg":"Success add rule","time":"2021-08-30T23:27:02Z"}
{"Hostname":"respone-server","level":"info","msg":"Success add rule","time":"2021-08-30T23:28:05Z"}
{"Hostname":"respone-server","level":"info","msg":"Success delete rule","time":"2021-08-30T23:28:32Z"}
{"Hostname":"respone-server","level":"info","msg":"Success delete rule","time":"2021-08-30T23:28:45Z"}
{"Hostname":"respone-server","level":"info","msg":"Success add rule","time":"2021-08-30T23:29:11Z"}
{"Hostname":"respone-server","level":"info","msg":"Success add rule","time":"2021-08-30T23:29:27Z"}
{"Hostname":"respone-server","level":"info","msg":"Success delete rule","time":"2021-08-30T23:29:38Z"}
{"Hostname":"respone-server","level":"info","msg":"Success add rule","time":"2021-08-30T23:30:46Z"}
{"Hostname":"respone-server","level":"info","msg":"Success delete rule","time":"2021-08-30T23:31:05Z"}
{"Hostname":"respone-server","level":"info","msg":"Success delete rule","time":"2021-08-30T23:34:28Z"}
{"Hostname":"respone-server","level":"info","msg":"Success add rule","time":"2021-08-30T23:35:03Z"}
{"Hostname":"respone-server","level":"info","msg":"Success add rule","time":"2021-08-30T23:35:06Z"}
{"Hostname":"respone-server","level":"info","msg":"Success delete rule","time":"2021-08-30T23:35:19Z"}
{"Hostname":"respone-server","level":"info","msg":"Success delete rule","time":"2021-08-30T23:35:38Z"}
{"Hostname":"respone-server","level":"info","msg":"Success add rule","time":"2021-08-30T23:35:50Z"}
{"Hostname":"respone-server","level":"info","msg":"Success add rule","time":"2021-08-30T23:36:03Z"}
{"Hostname":"respone-server","level":"info","msg":"Success delete rule","time":"2021-08-30T23:36:15Z"}
{"Hostname":"respone-server","level":"info","msg":"Success delete rule","time":"2021-08-30T23:36:28Z"}
{"Hostname":"respone-server","level":"info","msg":"Success add rule","time":"2021-08-31T01:45:30Z"}
{"Hostname":"respone-server","level":"info","msg":"Success delete rule","time":"2021-08-31T01:45:56Z"}
{"Hostname":"respone-server","level":"info","msg":"Success delete rule","time":"2021-08-31T01:46:05Z"}
{"Hostname":"respone-server","level":"info","msg":"Success add rule","time":"2021-08-31T01:46:28Z"}
{"Hostname":"respone-server","level":"info","msg":"Success add rule","time":"2021-08-31T01:47:18Z"}
{"Hostname":"respone-server","level":"info","msg":"Success delete rule","time":"2021-08-31T01:49:13Z"}
{"Hostname":"respone-server","level":"info","msg":"Success delete rule","time":"2021-08-31T01:49:40Z"}
{"Hostname":"respone-server","level":"info","msg":"Success delete rule","time":"2021-08-31T01:58:41Z"}
{"Hostname":"respone-server","level":"info","msg":"Success creates dial client connection to 10.140.0.7:1234","time":"2021-08-31T01:58:58Z"}
{"Hostname":"respone-server","level":"info","msg":"Success creates dial client connection to 10.140.0.8:1234","time":"2021-08-31T01:58:58Z"}
{"Hostname":"respone-server","level":"info","msg":"Starting TCP server on 10.184.0.4:10000","time":"2021-08-31T01:58:58Z"}
{"Hostname":"respone-server","level":"info","msg":"Success add rule","time":"2021-08-31T02:05:52Z"}
{"Hostname":"respone-server","level":"info","msg":"Success delete rule","time":"2021-08-31T03:09:52Z"}
{"Hostname":"respone-server","level":"info","msg":"Success creates dial client connection to 10.140.0.7:1234","time":"2021-08-31T03:10:04Z"}
{"Hostname":"respone-server","level":"info","msg":"Success creates dial client connection to 10.140.0.8:1234","time":"2021-08-31T03:10:04Z"}
{"Hostname":"respone-server","level":"info","msg":"Starting TCP server on 10.184.0.4:10000","time":"2021-08-31T03:10:04Z"}
{"Hostname":"respone-server","level":"info","msg":"Success add rule","time":"2021-08-31T03:16:31Z"}
{"Hostname":"respone-server","level":"info","msg":"Success add rule","time":"2021-08-31T03:51:28Z"}
{"Hostname":"respone-server","level":"info","msg":"Success delete rule","time":"2021-08-31T03:55:35Z"}
{"Hostname":"respone-server","level":"info","msg":"Success delete rule","time":"2021-08-31T03:56:21Z"}
{"Hostname":"respone-server","level":"info","msg":"Success add rule","time":"2021-08-31T03:57:06Z"}
{"Hostname":"respone-server","level":"info","msg":"Success creates dial client connection to 10.140.0.7:1234","time":"2021-09-06T18:17:01Z"}
{"Hostname":"respone-server","level":"info","msg":"Success creates dial client connection to 10.140.0.8:1234","time":"2021-09-06T18:17:01Z"}
{"Hostname":"respone-server","level":"info","msg":"Starting TCP server on 10.184.0.4:10000","time":"2021-09-06T18:17:01Z"}
